%YAML 1.1
%TAG !u! tag:unity3d.com,2011:
--- !u!29 &1
OcclusionCullingSettings:
  m_ObjectHideFlags: 0
  serializedVersion: 2
  m_OcclusionBakeSettings:
    smallestOccluder: 5
    smallestHole: 0.25
    backfaceThreshold: 100
  m_SceneGUID: 00000000000000000000000000000000
  m_OcclusionCullingData: {fileID: 0}
--- !u!104 &2
RenderSettings:
  m_ObjectHideFlags: 0
  serializedVersion: 9
  m_Fog: 0
  m_FogColor: {r: 0.5, g: 0.5, b: 0.5, a: 1}
  m_FogMode: 3
  m_FogDensity: 0.01
  m_LinearFogStart: 0
  m_LinearFogEnd: 300
  m_AmbientSkyColor: {r: 0.212, g: 0.227, b: 0.259, a: 1}
  m_AmbientEquatorColor: {r: 0.114, g: 0.125, b: 0.133, a: 1}
  m_AmbientGroundColor: {r: 0.047, g: 0.043, b: 0.035, a: 1}
  m_AmbientIntensity: 1
  m_AmbientMode: 0
  m_SubtractiveShadowColor: {r: 0.42, g: 0.478, b: 0.627, a: 1}
  m_SkyboxMaterial: {fileID: 0}
  m_HaloStrength: 0.5
  m_FlareStrength: 1
  m_FlareFadeSpeed: 3
  m_HaloTexture: {fileID: 0}
  m_SpotCookie: {fileID: 10001, guid: 0000000000000000e000000000000000, type: 0}
  m_DefaultReflectionMode: 0
  m_DefaultReflectionResolution: 128
  m_ReflectionBounces: 1
  m_ReflectionIntensity: 1
  m_CustomReflection: {fileID: 0}
  m_Sun: {fileID: 0}
  m_IndirectSpecularColor: {r: 0, g: 0, b: 0, a: 1}
  m_UseRadianceAmbientProbe: 0
--- !u!157 &3
LightmapSettings:
  m_ObjectHideFlags: 0
  serializedVersion: 12
  m_GIWorkflowMode: 1
  m_GISettings:
    serializedVersion: 2
    m_BounceScale: 1
    m_IndirectOutputScale: 1
    m_AlbedoBoost: 1
    m_EnvironmentLightingMode: 0
    m_EnableBakedLightmaps: 1
    m_EnableRealtimeLightmaps: 0
  m_LightmapEditorSettings:
    serializedVersion: 12
    m_Resolution: 2
    m_BakeResolution: 40
    m_AtlasSize: 1024
    m_AO: 0
    m_AOMaxDistance: 1
    m_CompAOExponent: 1
    m_CompAOExponentDirect: 0
    m_ExtractAmbientOcclusion: 0
    m_Padding: 2
    m_LightmapParameters: {fileID: 0}
    m_LightmapsBakeMode: 1
    m_TextureCompression: 1
    m_FinalGather: 0
    m_FinalGatherFiltering: 1
    m_FinalGatherRayCount: 256
    m_ReflectionCompression: 2
    m_MixedBakeMode: 2
    m_BakeBackend: 1
    m_PVRSampling: 1
    m_PVRDirectSampleCount: 32
    m_PVRSampleCount: 512
    m_PVRBounces: 2
    m_PVREnvironmentSampleCount: 256
    m_PVREnvironmentReferencePointCount: 2048
    m_PVRFilteringMode: 1
    m_PVRDenoiserTypeDirect: 1
    m_PVRDenoiserTypeIndirect: 1
    m_PVRDenoiserTypeAO: 1
    m_PVRFilterTypeDirect: 0
    m_PVRFilterTypeIndirect: 0
    m_PVRFilterTypeAO: 0
    m_PVREnvironmentMIS: 1
    m_PVRCulling: 1
    m_PVRFilteringGaussRadiusDirect: 1
    m_PVRFilteringGaussRadiusIndirect: 5
    m_PVRFilteringGaussRadiusAO: 2
    m_PVRFilteringAtrousPositionSigmaDirect: 0.5
    m_PVRFilteringAtrousPositionSigmaIndirect: 2
    m_PVRFilteringAtrousPositionSigmaAO: 1
    m_ExportTrainingData: 0
    m_TrainingDataDestination: TrainingData
    m_LightProbeSampleCountMultiplier: 4
  m_LightingDataAsset: {fileID: 112000000, guid: 63ab50df3e7906e47ae1dbc29dcfeb5a, type: 2}
  m_LightingSettings: {fileID: 639521164}
--- !u!196 &4
NavMeshSettings:
  serializedVersion: 2
  m_ObjectHideFlags: 0
  m_BuildSettings:
    serializedVersion: 3
    agentTypeID: 0
    agentRadius: 0.5
    agentHeight: 2
    agentSlope: 45
    agentClimb: 0.4
    ledgeDropHeight: 0
    maxJumpAcrossDistance: 0
    minRegionArea: 2
    manualCellSize: 0
    cellSize: 0.16666667
    manualTileSize: 0
    tileSize: 256
    buildHeightMesh: 0
    maxJobWorkers: 0
    preserveTilesOutsideBounds: 0
    debug:
      m_Flags: 0
  m_NavMeshData: {fileID: 0}
--- !u!850595691 &639521164
LightingSettings:
  m_ObjectHideFlags: 0
  m_CorrespondingSourceObject: {fileID: 0}
  m_PrefabInstance: {fileID: 0}
  m_PrefabAsset: {fileID: 0}
  m_Name: 
  serializedVersion: 6
  m_GIWorkflowMode: 1
  m_EnableBakedLightmaps: 1
  m_EnableRealtimeLightmaps: 0
  m_RealtimeEnvironmentLighting: 1
  m_BounceScale: 1
  m_AlbedoBoost: 1
  m_IndirectOutputScale: 1
  m_UsingShadowmask: 1
  m_BakeBackend: 1
  m_LightmapMaxSize: 1024
  m_BakeResolution: 40
  m_Padding: 2
  m_LightmapCompression: 3
  m_AO: 0
  m_AOMaxDistance: 1
  m_CompAOExponent: 1
  m_CompAOExponentDirect: 0
  m_ExtractAO: 0
  m_MixedBakeMode: 2
  m_LightmapsBakeMode: 1
  m_FilterMode: 1
  m_LightmapParameters: {fileID: 15204, guid: 0000000000000000f000000000000000, type: 0}
  m_ExportTrainingData: 0
  m_TrainingDataDestination: TrainingData
  m_RealtimeResolution: 2
  m_ForceWhiteAlbedo: 0
  m_ForceUpdates: 0
  m_FinalGather: 0
  m_FinalGatherRayCount: 256
  m_FinalGatherFiltering: 1
  m_PVRCulling: 1
  m_PVRSampling: 1
  m_PVRDirectSampleCount: 32
  m_PVRSampleCount: 512
  m_PVREnvironmentSampleCount: 256
  m_PVREnvironmentReferencePointCount: 2048
  m_LightProbeSampleCountMultiplier: 4
  m_PVRBounces: 2
  m_PVRMinBounces: 2
  m_PVREnvironmentImportanceSampling: 1
  m_PVRFilteringMode: 1
  m_PVRDenoiserTypeDirect: 1
  m_PVRDenoiserTypeIndirect: 1
  m_PVRDenoiserTypeAO: 1
  m_PVRFilterTypeDirect: 0
  m_PVRFilterTypeIndirect: 0
  m_PVRFilterTypeAO: 0
  m_PVRFilteringGaussRadiusDirect: 1
  m_PVRFilteringGaussRadiusIndirect: 5
  m_PVRFilteringGaussRadiusAO: 2
  m_PVRFilteringAtrousPositionSigmaDirect: 0.5
  m_PVRFilteringAtrousPositionSigmaIndirect: 2
  m_PVRFilteringAtrousPositionSigmaAO: 1
  m_PVRTiledBaking: 0
  m_NumRaysToShootPerTexel: -1
  m_RespectSceneVisibilityWhenBakingGI: 0
--- !u!1 &1542722917
GameObject:
  m_ObjectHideFlags: 0
  m_CorrespondingSourceObject: {fileID: 0}
  m_PrefabInstance: {fileID: 0}
  m_PrefabAsset: {fileID: 0}
  serializedVersion: 6
  m_Component:
  - component: {fileID: 1542722919}
  - component: {fileID: 1542722918}
  m_Layer: 0
  m_Name: New Game Object
  m_TagString: Untagged
  m_Icon: {fileID: 0}
  m_NavMeshLayer: 0
  m_StaticEditorFlags: 0
  m_IsActive: 1
--- !u!220 &1542722918
LightProbeGroup:
  m_ObjectHideFlags: 0
  m_CorrespondingSourceObject: {fileID: 0}
  m_PrefabInstance: {fileID: 0}
  m_PrefabAsset: {fileID: 0}
  m_GameObject: {fileID: 1542722917}
  m_Enabled: 1
  m_SourcePositions:
  - {x: -1.6033247, y: 0.15993708, z: -0.24135038}
  - {x: -2.2521048, y: 0.15993708, z: -4.378961}
  - {x: -0.07076657, y: 1, z: 0.20737767}
  - {x: -3.1602533, y: 1.7862186, z: 0.20737767}
  - {x: 1.3286798, y: 1.894484, z: 0.20737767}
  - {x: 1.3286798, y: 1.894484, z: -4.378961}
  - {x: 1.3286798, y: 0.15993708, z: 0.20737767}
  - {x: 1.3286798, y: 0.15993708, z: -4.378961}
  - {x: 3.34358, y: 1, z: 0.20737767}
  - {x: -1, y: 1.894484, z: 0.20737767}
  - {x: -1, y: 1.894484, z: -4.378961}
  - {x: -1, y: 0.15993708, z: 0.20737767}
  - {x: -1, y: 0.15993708, z: -4.378961}
  - {x: -1, y: 1, z: 0.20737767}
  - {x: -1.6033247, y: 0.15993708, z: -0.745955}
  - {x: -0.07076657, y: 1, z: -1}
  - {x: -3.1602533, y: 1.7862186, z: -1}
  - {x: 1.3286798, y: 1.894484, z: -1}
  - {x: 1.3286798, y: 0.15993708, z: -1}
  - {x: 3.34358, y: 1, z: -1}
  - {x: -1, y: 1.894484, z: -1}
  - {x: -1, y: 0.15993708, z: -1}
  - {x: -1, y: 1, z: -1}
  - {x: -2.2521048, y: 0.15993708, z: 1.2462254}
  - {x: 1.3286798, y: 1.894484, z: 1.2462254}
  - {x: 1.3286798, y: 0.15993708, z: 1.2462254}
  - {x: -1, y: 1.894484, z: 1.2462254}
  - {x: -1, y: 0.15993708, z: 1.2462254}
  - {x: 1.3286798, y: 1, z: 0.20737767}
  - {x: 1.3286798, y: 1, z: -1}
  - {x: -0.07076657, y: 0.15993708, z: 0.20737767}
  - {x: -0.07076657, y: 0.15993708, z: -4.378961}
  - {x: -0.07076657, y: 0.15993708, z: -1}
  - {x: -0.07076657, y: 0.15993708, z: 1.2462254}
  - {x: -0.07076657, y: 1, z: 1.2462254}
  - {x: -3.1602533, y: 1.7862186, z: 1.2462254}
  - {x: 3.34358, y: 1, z: 1.2462254}
  - {x: -1, y: 1, z: 1.2462254}
  - {x: 1.3286798, y: 1, z: 1.2462254}
  - {x: -2.2521048, y: 1, z: 1.2462254}
  - {x: -0.07076657, y: 1, z: -4.378961}
  - {x: -3.1602533, y: 1.7862186, z: -4.378961}
  - {x: 3.34358, y: 1, z: -4.378961}
  - {x: -1, y: 1, z: -4.378961}
  - {x: 1.3286798, y: 1, z: -4.378961}
  - {x: -2.2521048, y: 1, z: -4.378961}
  - {x: -0.07076657, y: 1.894484, z: 0.20737767}
  - {x: -0.07076657, y: 1.894484, z: -4.378961}
  - {x: -0.07076657, y: 1.894484, z: -1}
  - {x: -0.07076657, y: 1.894484, z: 1.2462254}
  - {x: -1.6033247, y: 0.15993708, z: -1.2500923}
  - {x: -2.2521048, y: 0.15993708, z: 0.008741438}
  - {x: -2.2521048, y: 0.15993708, z: -0.49586284}
  - {x: -2.2521048, y: 0.15993708, z: -1}
  - {x: -2.2521048, y: 1, z: -0.49586284}
  - {x: -2.2521048, y: 1, z: 0.008741438}
  - {x: -2.2521048, y: 1, z: -1}
  - {x: -1.6033247, y: 1, z: -0.745955}
  - {x: -1.6033247, y: 1, z: -0.24135038}
  - {x: -1.6033247, y: 1, z: -1.2500923}
  - {x: -2.2521048, y: 1.8699367, z: -0.49586284}
  - {x: -2.2521048, y: 1.8699367, z: 0.008741438}
  - {x: -2.2521048, y: 1.8699367, z: -1}
  - {x: -1.6033247, y: 1.8699367, z: -0.745955}
  - {x: -1.6033247, y: 1.8699367, z: -0.24135038}
  - {x: -1.6033247, y: 1.8699367, z: -1.2500923}
  - {x: -3.5045764, y: 1, z: 0.20737767}
  - {x: -3.5045764, y: 1, z: -1}
  - {x: -3.5045764, y: 1, z: 1.2462254}
  - {x: -3.5045764, y: 1, z: -4.378961}
  - {x: -3.5045764, y: 0.20046484, z: 0.20737767}
  - {x: -3.5045764, y: 0.20046484, z: -1}
  - {x: -3.5045764, y: 0.20046484, z: 1.2462254}
  - {x: -3.5045764, y: 0.20046484, z: -4.378961}
  - {x: -2.9207888, y: -0.5973489, z: 0.20737767}
  - {x: -2.9207888, y: -0.5973489, z: -1}
  - {x: -2.9207888, y: -0.5973489, z: 1.2462254}
  - {x: -2.9207888, y: -0.5973489, z: -4.378961}
  - {x: -2.2521048, y: 0.15993708, z: -2.3515792}
  - {x: 1.3286798, y: 1.894484, z: -2.3515792}
  - {x: 1.3286798, y: 0.15993708, z: -2.3515792}
  - {x: -1, y: 1.894484, z: -2.3515792}
  - {x: -1, y: 0.15993708, z: -2.3515792}
  - {x: -0.07076657, y: 0.15993708, z: -2.3515792}
  - {x: -0.07076657, y: 1, z: -2.3515792}
  - {x: -3.1602533, y: 1.7862186, z: -2.3515792}
  - {x: 3.34358, y: 1, z: -2.3515792}
  - {x: -1, y: 1, z: -2.3515792}
  - {x: 1.3286798, y: 1, z: -2.3515792}
  - {x: -2.2521048, y: 1, z: -2.3515792}
  - {x: -0.07076657, y: 1.894484, z: -2.3515792}
  - {x: -3.5045764, y: 1, z: -2.3515792}
  - {x: -3.5045764, y: 0.20046484, z: -2.3515792}
  - {x: -2.9207888, y: -0.5973489, z: -2.3515792}
  - {x: -2.2521048, y: 0.15993708, z: -3.1874423}
  - {x: 1.3286798, y: 1.894484, z: -3.1874423}
  - {x: 1.3286798, y: 0.15993708, z: -3.1874423}
  - {x: -1, y: 1.894484, z: -3.1874423}
  - {x: -1, y: 0.15993708, z: -3.1874423}
  - {x: -0.07076657, y: 0.15993708, z: -3.1874423}
  - {x: -0.07076657, y: 1, z: -3.1874423}
  - {x: -3.1602533, y: 1.7862186, z: -3.1874423}
  - {x: 3.34358, y: 1, z: -3.1874423}
  - {x: -1, y: 1, z: -3.1874423}
  - {x: 1.3286798, y: 1, z: -3.1874423}
  - {x: -2.2521048, y: 1, z: -3.1874423}
  - {x: -0.07076657, y: 1.894484, z: -3.1874423}
  - {x: -3.5045764, y: 1, z: -3.1874423}
  - {x: -3.5045764, y: 0.20046484, z: -3.1874423}
  - {x: -2.9207888, y: -0.5973489, z: -3.1874423}
  m_Dering: 1
--- !u!4 &1542722919
Transform:
  m_ObjectHideFlags: 0
  m_CorrespondingSourceObject: {fileID: 0}
  m_PrefabInstance: {fileID: 0}
  m_PrefabAsset: {fileID: 0}
  m_GameObject: {fileID: 1542722917}
  m_LocalRotation: {x: -0, y: -0, z: -0, w: 1}
  m_LocalPosition: {x: 0.003029108, y: 0.5027771, z: -17.123053}
  m_LocalScale: {x: 1, y: 1, z: 1}
  m_ConstrainProportionsScale: 0
  m_Children: []
  m_Father: {fileID: 0}
  m_RootOrder: 0
  m_LocalEulerAnglesHint: {x: 0, y: 0, z: 0}
